…
## Get Genders for Examiners

``` r
examiner_names <- applications %>% 
  distinct(examiner_name_first)

examiner_names
```

    ## # A tibble: 2,595 × 1
    ##    examiner_name_first
    ##    <chr>              
    ##  1 JACQUELINE         
    ##  2 BEKIR              
    ##  3 CYNTHIA            
    ##  4 MARY               
    ##  5 MICHAEL            
    ##  6 LINDA              
    ##  7 KARA               
    ##  8 VANESSA            
    ##  9 TERESA             
    ## 10 SUN                
    ## # … with 2,585 more rows

``` r
examiner_names_gender <- examiner_names %>% 
  do(results = gender(.$examiner_name_first, method = "ssa")) %>% 
  unnest(cols = c(results), keep_empty = TRUE) %>% 
  select(
    examiner_name_first = name,
    gender,
    proportion_female
  )

examiner_names_gender
```

    ## # A tibble: 1,822 × 3
    ##    examiner_name_first gender proportion_female
    ##    <chr>               <chr>              <dbl>
    ##  1 AARON               male              0.0082
    ##  2 ABDEL               male              0     
    ##  3 ABDOU               male              0     
    ##  4 ABDUL               male              0     
    ##  5 ABDULHAKIM          male              0     
    ##  6 ABDULLAH            male              0     
    ##  7 ABDULLAHI           male              0     
    ##  8 ABIGAIL             female            0.998 
    ##  9 ABIMBOLA            female            0.944 
    ## 10 ABRAHAM             male              0.0031
    ## # … with 1,812 more rows
…
    ##            used  (Mb) gc trigger  (Mb) limit (Mb) max used  (Mb)
    ## Ncells  4156561 222.0    7281582 388.9         NA  4176104 223.1
    ## Vcells 49053569 374.3   94875321 723.9      16384 79369113 605.6

## Get Race for Examiners

``` r
examiner_surnames <- applications %>% 
  select(surname = examiner_name_last) %>% 
  distinct()

examiner_surnames
```

    ## # A tibble: 3,806 × 1
    ##    surname   
    ##    <chr>     
    ##  1 HOWARD    
    ##  2 YILDIRIM  
    ##  3 HAMILTON  
    ##  4 MOSHER    
    ##  5 BARR      
    ##  6 GRAY      
    ##  7 MCMILLIAN 
    ##  8 FORD      
    ##  9 STRZELECKA
    ## 10 KIM       
    ## # … with 3,796 more rows
``` r
examiner_race <- predict_race(voter.file = examiner_surnames, surname.only = T) %>% 
  as_tibble()
```

    ## [1] "Proceeding with surname-only predictions..."

    ## Warning in merge_surnames(voter.file): Probabilities were imputed for 698
    ## surnames that could not be matched to Census list.

``` r
examiner_race
```

    ## # A tibble: 3,806 × 6
    ##    surname    pred.whi pred.bla pred.his pred.asi pred.oth
    ##    <chr>         <dbl>    <dbl>    <dbl>    <dbl>    <dbl>
    ##  1 HOWARD       0.643   0.295    0.0237   0.005     0.0333
    ##  2 YILDIRIM     0.861   0.0271   0.0609   0.0135    0.0372
    ##  3 HAMILTON     0.702   0.237    0.0245   0.0054    0.0309
    ##  4 MOSHER       0.947   0.00410  0.0241   0.00640   0.0185
    ##  5 BARR         0.827   0.117    0.0226   0.00590   0.0271
    ##  6 GRAY         0.687   0.251    0.0241   0.0054    0.0324
    ##  7 MCMILLIAN    0.359   0.574    0.0189   0.00260   0.0463
    ##  8 FORD         0.620   0.32     0.0237   0.0045    0.0313
    ##  9 STRZELECKA   0.666   0.0853   0.137    0.0797    0.0318
    ## 10 KIM          0.0252  0.00390  0.00650  0.945     0.0198
    ## # … with 3,796 more rows
…
examiner_race
```

    ## # A tibble: 3,806 × 8
    ##    surname    pred.whi pred.bla pred.his pred.asi pred.oth max_race_p race 
    ##    <chr>         <dbl>    <dbl>    <dbl>    <dbl>    <dbl>      <dbl> <chr>
    ##  1 HOWARD       0.643   0.295    0.0237   0.005     0.0333      0.643 white
    ##  2 YILDIRIM     0.861   0.0271   0.0609   0.0135    0.0372      0.861 white
    ##  3 HAMILTON     0.702   0.237    0.0245   0.0054    0.0309      0.702 white
    ##  4 MOSHER       0.947   0.00410  0.0241   0.00640   0.0185      0.947 white
    ##  5 BARR         0.827   0.117    0.0226   0.00590   0.0271      0.827 white
    ##  6 GRAY         0.687   0.251    0.0241   0.0054    0.0324      0.687 white
    ##  7 MCMILLIAN    0.359   0.574    0.0189   0.00260   0.0463      0.574 black
    ##  8 FORD         0.620   0.32     0.0237   0.0045    0.0313      0.620 white
    ##  9 STRZELECKA   0.666   0.0853   0.137    0.0797    0.0318      0.666 white
    ## 10 KIM          0.0252  0.00390  0.00650  0.945     0.0198      0.945 Asian
    ## # … with 3,796 more rows
…
    ##            used  (Mb) gc trigger  (Mb) limit (Mb) max used  (Mb)
    ## Ncells  4578293 244.6    7281582 388.9         NA  7281582 388.9
    ## Vcells 52860809 403.3   94875321 723.9      16384 94005191 717.3

## Get Tenure for Examiners

``` r
examiner_dates <- applications %>% 
  select(examiner_id, filing_date, appl_status_date) 

examiner_dates
```

    ## # A tibble: 2,018,477 × 3
    ##    examiner_id filing_date appl_status_date  
    ##          <dbl> <date>      <chr>             
    ##  1       96082 2000-01-26  30jan2003 00:00:00
    ##  2       87678 2000-10-11  27sep2010 00:00:00
    ##  3       63213 2000-05-17  30mar2009 00:00:00
    ##  4       73788 2001-07-20  07sep2009 00:00:00
    ##  5       77294 2000-04-10  19apr2001 00:00:00
    ##  6       68606 2000-04-28  16jul2001 00:00:00
    ##  7       89557 2004-01-26  15may2017 00:00:00
    ##  8       97543 2000-06-23  03apr2002 00:00:00
    ##  9       98714 2000-02-04  27nov2002 00:00:00
    ## 10       65530 2002-02-20  23mar2009 00:00:00
    ## # … with 2,018,467 more rows
…
examiner_dates <- examiner_dates %>% 
  group_by(examiner_id) %>% 
  summarise(
    earliest_date = min(start_date, na.rm = TRUE), 
    latest_date = max(end_date, na.rm = TRUE),
    tenure_days = interval(earliest_date, latest_date) %/% days(1)
    ) %>% 
  filter(year(latest_date)<2018)

examiner_dates
```

    ## # A tibble: 5,625 × 4
    ##    examiner_id earliest_date latest_date tenure_days
    ##          <dbl> <date>        <date>            <dbl>
    ##  1       59012 2004-07-28    2015-07-24         4013
    ##  2       59025 2009-10-26    2017-05-18         2761
    ##  3       59030 2005-12-12    2017-05-22         4179
    ##  4       59040 2007-09-11    2017-05-23         3542
    ##  5       59052 2001-08-21    2007-02-28         2017
    ##  6       59054 2000-11-10    2016-12-23         5887
    ##  7       59055 2004-11-02    2007-12-26         1149
    ##  8       59056 2000-03-24    2017-05-22         6268
    ##  9       59074 2000-01-31    2017-03-17         6255
    ## 10       59081 2011-04-21    2017-05-19         2220
    ## # … with 5,615 more rows
…
## Discussion

By looking at the graph above, we notice that examiners generally seek
advice from people within their own work group, except for one instance
in work group 179 where examiner 64059 is seeking advice from the other
work group. There also seems to be separate networks with a mix of
examiners coming from both work groups.

``` r
examiner1 <- applications %>% 
  filter(examiner_id==64059)
examiner1
```

    ## # A tibble: 641 × 21
    ##    application_number filing_date examiner_name_last examiner_name_first
    ##    <chr>              <date>      <chr>              <chr>              
    ##  1 10543663           2006-03-03  FINK               BRIEANN            
    ##  2 10548354           2006-11-17  FINK               BRIEANN            
    ##  3 10557173           2005-11-17  FINK               BRIEANN            
    ##  4 10561974           2005-12-22  FINK               BRIEANN            
    ##  5 10563041           2006-01-03  FINK               BRIEANN            
    ##  6 10566424           2007-05-29  FINK               BRIEANN            
    ##  7 10577931           2006-05-02  FINK               BRIEANN            
    ##  8 10578731           2006-05-10  FINK               BRIEANN            
    ##  9 10582628           2007-04-04  FINK               BRIEANN            
    ## 10 10583506           2006-06-16  FINK               BRIEANN            
    ## # … with 631 more rows, and 17 more variables: examiner_name_middle <chr>,
    ## #   examiner_id <dbl>, examiner_art_unit <dbl>, uspc_class <chr>,
    ## #   uspc_subclass <chr>, patent_number <chr>, patent_issue_date <date>,
    ## #   abandon_date <date>, disposal_type <chr>, appl_status_code <dbl>,
    ## #   appl_status_date <chr>, tc <dbl>, gender <chr>, race <chr>,
    ## #   earliest_date <date>, latest_date <date>, tenure_days <dbl>

We can notice that this examiner has been working for the UPSTO for more
than 14 years. Therefore, she could have developed strong links with
people from different work groups.

From looking at the graph, we can also notice that examiners 72253 and
84157 have the highest degree centrality. Let’s look at those examiners.

``` r
examiner2 <- applications %>% 
  filter(examiner_id==72253)
examiner2
```

    ## # A tibble: 399 × 21
    ##    application_number filing_date examiner_name_last examiner_name_first
    ##    <chr>              <date>      <chr>              <chr>              
    ##  1 09242244           2000-02-29  WOITACH            JOSEPH             
    ##  2 09402130           2000-02-02  WOITACH            JOSEPH             
    ##  3 09402527           2000-01-03  WOITACH            JOSEPH             
    ##  4 09403707           2000-03-17  WOITACH            JOSEPH             
    ##  5 09423935           2000-03-13  WOITACH            JOSEPH             
    ##  6 09446717           2000-04-13  WOITACH            JOSEPH             
    ##  7 09463276           2000-05-12  WOITACH            JOSEPH             
    ##  8 09479195           2000-01-07  WOITACH            JOSEPH             
    ##  9 09484629           2000-01-18  WOITACH            JOSEPH             
    ## 10 09484848           2000-01-18  WOITACH            JOSEPH             
    ## # … with 389 more rows, and 17 more variables: examiner_name_middle <chr>,
    ## #   examiner_id <dbl>, examiner_art_unit <dbl>, uspc_class <chr>,
    ## #   uspc_subclass <chr>, patent_number <chr>, patent_issue_date <date>,
    ## #   abandon_date <date>, disposal_type <chr>, appl_status_code <dbl>,
    ## #   appl_status_date <chr>, tc <dbl>, gender <chr>, race <chr>,
    ## #   earliest_date <date>, latest_date <date>, tenure_days <dbl>

``` r
examiner3 <- applications %>% 
  filter(examiner_id==84157)
examiner3
```

    ## # A tibble: 1,188 × 21
    ##    application_number filing_date examiner_name_last examiner_name_first
    ##    <chr>              <date>      <chr>              <chr>              
    ##  1 09424416           2000-02-15  CHOI               LING SIU           
    ##  2 09462095           2000-01-12  CHOI               LING SIU           
    ##  3 09462103           2000-01-13  CHOI               LING SIU           
    ##  4 09463436           2000-01-27  CHOI               LING SIU           
    ##  5 09463999           2000-02-22  CHOI               LING SIU           
    ##  6 09478197           2000-01-05  CHOI               LING SIU           
    ##  7 09479424           2000-01-07  CHOI               LING SIU           
    ##  8 09481047           2000-01-11  CHOI               LING SIU           
    ##  9 09485195           2000-05-04  CHOI               LING SIU           
    ## 10 09485618           2000-02-15  CHOI               LING SIU           
    ## # … with 1,178 more rows, and 17 more variables: examiner_name_middle <chr>,
    ## #   examiner_id <dbl>, examiner_art_unit <dbl>, uspc_class <chr>,
    ## #   uspc_subclass <chr>, patent_number <chr>, patent_issue_date <date>,
    ## #   abandon_date <date>, disposal_type <chr>, appl_status_code <dbl>,
    ## #   appl_status_date <chr>, tc <dbl>, gender <chr>, race <chr>,
    ## #   earliest_date <date>, latest_date <date>, tenure_days <dbl>
…
